07005;20180512210000;101210;30;0;310;3.300000;283.250000;282.650000;96;19490;0;mq;mq;mq;mq;mq;mq;mq;mq;100340;mq;mq;-190;mq;mq;mq;mq;285.950000;mq;mq;5.400000;8.700000;-10;1;mq;mq;mq;0.400000;1.400000;18.700000;18.700000;18.700000;mq;mq;mq;mq;mq;mq;mq;mq;mq;mq;mq;mq;mq;mq;mq;mq;
07015;20180512210000;101050;180;0;290;5.700000;285.350000;284.550000;95;6160;0;mq;mq;100;1;250;mq;mq;mq;100490;mq;mq;-460;mq;mq;mq;mq;287.650000;mq;mq;8.200000;10.600000;-10;1;0.000000;mq;mq;0.200000;1.600000;1.600000;1.600000;1.600000;mq;mq;mq;mq;8;mq;mq;mq;mq;mq;mq;mq;mq;mq;mq;mq;
07020;20180512210000;101380;70;3;120;2.300000;282.350000;279.750000;84;20000;1;2;mq;75;6;2500;30;25;10;101280;mq;mq;50;mq;mq;mq;mq;mq;mq;mq;3.000000;3.000000;-10;mq;mq;mq;mq;0.000000;0.000000;0.000000;0.000000;-0.100000;mq;mq;mq;mq;mq;mq;mq;mq;mq;mq;mq;mq;mq;mq;mq;mq;
07027;20180512210000;101420;80;1;220;2.600000;281.250000;280.050000;92;37580;0;mq;mq;90;7;1750;mq;mq;mq;100600;mq;mq;30;mq;mq;mq;mq;285.450000;mq;mq;3.300000;3.500000;-10;1;0.000000;mq;mq;0.000000;0.000000;0.600000;8.800000;10.000000;mq;mq;mq;mq;3;mq;mq;7;mq;mq;mq;mq;mq;mq;mq;mq;
07037;20180512210000;101430;170;3;260;3.500000;281.950000;281.150000;95;11280;0;mq;mq;100;8;150;mq;mq;mq;99590;mq;mq;20;mq;mq;mq;mq;285.650000;mq;mq;5.700000;7.000000;-10;mq;0.000000;mq;mq;0.000000;0.000000;3.800000;3.800000;3.800000;mq;mq;mq;mq;8;mq;mq;mq;mq;mq;mq;mq;mq;mq;mq;mq;
07072;20180512210000;101100;150;3;290;4.300000;288.150000;286.550000;90;20000;0;mq;mq;100;5;450;mq;mq;mq;99980;mq;mq;-470;mq;mq;mq;mq;288.150000;mq;mq;7.800000;7.800000;-10;mq;0.000000;mq;mq;0.000000;0.000000;2.900000;2.900000;2.900000;mq;mq;mq;mq;7;mq;mq;8;mq;mq;mq;9;mq;mq;mq;mq;
07110;20180512210000;101380;40;3;170;1.800000;280.350000;278.650000;89;60000;0;mq;mq;100;1;450;mq;mq;mq;100180;mq;mq;-90;mq;mq;mq;mq;282.450000;mq;mq;2.500000;3.700000;-10;2;0.000000;mq;mq;0.400000;0.600000;0.600000;2.000000;4.000000;mq;mq;mq;mq;8;mq;mq;mq;8;mq;mq;mq;mq;mq;mq;mq;
07117;20180512210000;101410;100;3;360;0.600000;280.250000;278.050000;86;mq;mq;mq;mq;mq;mq;mq;mq;mq;mq;100700;mq;mq;-20;mq;mq;mq;mq;mq;mq;mq;2.400000;7.900000;-10;mq;mq;mq;mq;2.400000;2.600000;6.200000;7.600000;7.800000;mq;mq;mq;mq;mq;mq;mq;mq;mq;mq;mq;mq;mq;mq;mq;mq;
07130;20180512210000;101510;130;3;230;2.600000;281.450000;279.950000;90;43110;0;mq;mq;90;7;800;mq;mq;mq;101060;mq;mq;20;mq;mq;mq;mq;284.350000;mq;mq;4.400000;4.600000;-10;0;0.000000;mq;mq;0.000000;0.000000;0.200000;1.600000;2.000000;mq;mq;mq;mq;7;mq;mq;mq;mq;mq;mq;mq;mq;mq;mq;mq;
07139;20180512210000;101500;50;3;200;1.400000;281.450000;280.650000;95;16750;0;mq;mq;90;7;4440;mq;mq;mq;99740;mq;mq;20;mq;mq;mq;mq;286.450000;mq;mq;2.600000;2.600000;-10;0;0.000000;mq;mq;0.000000;0.000000;0.400000;10.300000;13.700000;mq;mq;mq;mq;6;mq;mq;7;mq;mq;mq;mq;mq;mq;mq;mq;
07149;20180512210000;101420;170;3;260;5.100000;283.450000;281.350000;87;55200;0;6;6;100;7;450;mq;mq;mq;100330;mq;mq;-100;mq;mq;mq;mq;mq;mq;mq;8.400000;9.500000;-10;mq;0.000000;mq;mq;-0.100000;0.200000;1.000000;1.600000;1.600000;mq;mq;mq;mq;7;mq;mq;7;mq;mq;mq;mq;mq;mq;mq;mq;
07168;20180512210000;101380;360;3;270;5.200000;284.050000;282.650000;91;13630;61;mq;mq;100;8;450;mq;mq;mq;99960;mq;mq;-200;mq;mq;mq;mq;285.550000;mq;mq;9.400000;14.900000;-10;2;0.000000;mq;mq;1.600000;1.600000;1.600000;1.600000;1.600000;mq;mq;mq;mq;8;mq;mq;mq;9;mq;mq;mq;mq;mq;mq;mq;
07181;20180512210000;100990;50;3;170;2.300000;290.950000;282.550000;58;59250;0;mq;mq;100;8;2250;mq;mq;mq;97040;mq;mq;-560;mq;mq;mq;mq;286.250000;mq;mq;2.900000;3.700000;-10;mq;mq;mq;mq;0.000000;0.000000;0.000000;0.000000;0.000000;mq;mq;mq;mq;8;mq;mq;mq;mq;mq;mq;mq;mq;mq;mq;mq;
07190;20180512210000;100940;40;0;340;2.400000;292.750000;286.650000;68;30560;0;mq;mq;100;8;2640;mq;mq;mq;99190;mq;mq;-640;mq;mq;mq;mq;291.850000;mq;mq;3.300000;4.000000;-10;0;0.000000;mq;mq;0.000000;0.000000;0.000000;0.000000;0.000000;mq;mq;mq;mq;6;mq;mq;8;mq;mq;mq;mq;mq;mq;mq;mq;
07207;20180512210000;101550;100;3;270;6.200000;283.550000;278.950000;73;mq;mq;mq;mq;mq;mq;mq;mq;mq;mq;101030;mq;mq;60;mq;mq;mq;mq;mq;mq;mq;10.200000;12.400000;-10;mq;mq;mq;mq;-0.100000;-0.100000;5.500000;9.500000;9.500000;mq;mq;mq;mq;mq;mq;mq;mq;mq;mq;mq;mq;mq;mq;mq;mq;
07222;20180512210000;101610;110;2;240;3.000000;281.550000;280.450000;93;60000;0;mq;mq;100;7;800;mq;mq;mq;101290;mq;mq;30;mq;mq;mq;mq;284.050000;mq;mq;4.400000;4.400000;-10;1;0.000000;mq;mq;-0.100000;-0.100000;2.200000;4.200000;5.800000;mq;mq;mq;mq;3;mq;mq;7;mq;mq;mq;8;mq;mq;mq;mq;
07240;20180512210000;101590;70;3;190;2.500000;282.350000;280.750000;90;41400;0;mq;mq;100;3;450;mq;mq;mq;100230;mq;mq;70;mq;mq;mq;mq;285.150000;mq;mq;3.900000;3.900000;-10;0;mq;mq;mq;0.000000;0.000000;1.000000;6.200000;6.400000;mq;mq;mq;mq;3;mq;mq;8;mq;mq;mq;mq;mq;mq;mq;mq;
07255;20180512210000;101650;120;3;250;3.300000;281.950000;280.750000;92;20000;0;mq;mq;mq;mq;mq;mq;mq;mq;99640;mq;mq;50;mq;mq;mq;mq;283.050000;mq;mq;7.100000;7.100000;-10;mq;0.000000;mq;mq;-0.100000;2.000000;4.200000;4.200000;4.200000;mq;mq;mq;mq;mq;mq;mq;mq;mq;mq;mq;mq;mq;mq;mq;mq;
07280;20180512210000;101180;210;3;300;10.500000;287.350000;283.550000;78;19970;0;mq;mq;mq;mq;mq;mq;mq;mq;98510;mq;mq;-410;mq;mq;mq;mq;287.950000;mq;mq;17.300000;17.300000;-10;0;0.000000;mq;mq;0.000000;0.000000;0.000000;0.000000;0.000000;mq;mq;mq;mq;mq;mq;mq;mq;mq;mq;mq;mq;mq;mq;mq;mq;
07299;20180512210000;101000;110;3;260;5.300000;291.550000;282.850000;57;40000;2;2;2;90;3;mq;39;28;12;97850;mq;mq;-560;mq;mq;mq;mq;290.150000;mq;mq;9.600000;9.600000;-10;0;0.000000;0.000000;-30;0.000000;0.000000;0.000000;0.000000;0.200000;mq;mq;mq;mq;5;0;mq;3;9;mq;mq;mq;mq;mq;mq;mq;
07314;20180512210000;101770;80;0;220;2.800000;282.950000;278.550000;74;14000;24;0;mq;25;2;800;31;20;10;101490;mq;mq;80;mq;mq;mq;mq;mq;mq;mq;4.500000;4.500000;-10;2;mq;mq;mq;-0.100000;0.200000;0.600000;3.800000;4.200000;mq;mq;mq;mq;mq;mq;mq;mq;mq;mq;mq;mq;mq;mq;mq;mq;
07335;20180512210000;101690;70;3;220;3.300000;281.950000;281.150000;95;57430;0;mq;mq;100;6;450;mq;mq;mq;100230;mq;mq;100;mq;mq;mq;mq;285.350000;mq;mq;4.600000;5.700000;-10;mq;0.000000;mq;mq;0.000000;0.000000;-0.100000;7.900000;10.100000;mq;mq;mq;mq;6;mq;mq;7;mq;mq;mq;mq;mq;mq;mq;mq;
07434;20180512210000;101800;70;3;180;2.300000;280.750000;280.350000;97;15560;0;mq;mq;100;8;150;mq;mq;mq;96970;mq;mq;100;mq;mq;mq;mq;281.750000;mq;mq;3.500000;3.800000;-10;1;0.000000;mq;mq;-0.100000;-0.100000;3.400000;11.100000;12.300000;mq;mq;mq;mq;8;mq;mq;mq;mq;mq;mq;mq;mq;mq;mq;mq;
07460;20180512210000;101720;310;1;140;2.200000;281.750000;280.550000;92;17350;61;mq;mq;100;6;800;mq;mq;mq;97810;mq;mq;80;mq;mq;mq;mq;283.350000;mq;mq;2.900000;4.500000;-10;2;0.000000;mq;mq;2.400000;2.800000;4.000000;4.200000;4.200000;mq;mq;mq;mq;3;mq;mq;6;mq;mq;mq;9;mq;mq;mq;mq;
07471;20180512210000;mq;200;3;310;5.000000;280.150000;278.450000;89;7490;61;mq;mq;100;8;450;mq;mq;mq;91890;mq;778;-250;mq;mq;mq;mq;282.250000;mq;mq;9.800000;9.800000;-10;2;0.000000;mq;mq;3.000000;5.200000;5.200000;5.200000;5.200000;mq;mq;mq;mq;5;mq;mq;8;mq;mq;mq;8;mq;mq;mq;mq;
07481;20180512210000;101430;290;3;300;4.400000;285.850000;281.350000;74;50000;60;6;2;90;4;1250;35;27;mq;98580;mq;mq;-170;mq;mq;mq;mq;mq;mq;mq;6.700000;11.300000;-10;0;0.000000;0.000000;-30;-0.100000;-0.100000;-0.100000;-0.100000;-0.100000;mq;mq;mq;mq;4;6;mq;7;3;mq;mq;mq;mq;mq;mq;mq;
07510;20180512210000;101930;130;1;260;2.600000;282.650000;279.150000;79;60000;0;mq;mq;100;3;1250;mq;mq;mq;101340;mq;mq;210;mq;mq;mq;mq;282.650000;mq;mq;4.300000;6.300000;-10;0;0.000000;mq;mq;0.000000;-0.100000;0.200000;6.100000;10.500000;mq;mq;mq;mq;7;mq;mq;8;mq;mq;mq;mq;mq;mq;mq;mq;
07535;20180512210000;101950;140;1;200;1.700000;281.250000;280.850000;97;8980;61;mq;mq;100;8;80;mq;mq;mq;98790;mq;mq;270;mq;mq;mq;mq;285.250000;mq;mq;2.800000;2.800000;-10;2;0.000000;mq;mq;0.400000;0.600000;4.700000;6.700000;6.900000;mq;mq;mq;mq;3;mq;mq;5;mq;mq;mq;mq;mq;mq;mq;mq;
07558;20180512210000;101800;210;1;320;5.800000;278.850000;277.350000;90;18060;63;mq;mq;mq;mq;mq;mq;mq;mq;93380;mq;mq;-80;mq;mq;mq;mq;280.950000;mq;mq;10.300000;10.300000;-10;mq;0.000000;mq;mq;3.000000;5.400000;6.800000;6.800000;6.800000;mq;mq;mq;mq;mq;mq;mq;mq;mq;mq;mq;mq;mq;mq;mq;mq;
07577;20180512210000;101350;80;3;190;2.000000;289.750000;285.050000;74;20000;0;mq;mq;mq;mq;mq;mq;mq;mq;100480;mq;mq;-310;mq;mq;mq;mq;289.750000;mq;mq;4.000000;6.800000;-10;0;0.000000;mq;mq;0.000000;0.000000;0.000000;0.000000;0.000000;mq;mq;mq;mq;mq;mq;mq;mq;mq;mq;mq;mq;mq;mq;mq;mq;
07591;20180512210000;mq;20;3;350;0.700000;286.650000;284.150000;85;20000;0;mq;mq;mq;mq;mq;mq;mq;mq;91400;mq;773;-400;mq;mq;mq;mq;285.450000;mq;mq;1.000000;1.900000;-10;mq;mq;mq;mq;0.000000;0.000000;0.200000;0.200000;0.200000;mq;mq;mq;mq;mq;mq;mq;mq;mq;mq;mq;mq;mq;mq;mq;mq;
07607;20180512210000;102050;100;1;250;2.200000;282.650000;280.250000;85;60000;0;mq;mq;100;8;3360;mq;mq;mq;101330;mq;mq;330;mq;mq;mq;mq;286.250000;mq;mq;3.200000;3.700000;-10;mq;0.000000;mq;mq;0.000000;0.000000;0.200000;8.600000;17.400000;mq;mq;mq;mq;mq;mq;mq;mq;mq;mq;mq;mq;mq;mq;mq;mq;
07621;20180512210000;102190;90;1;180;4.700000;278.950000;277.250000;89;60000;0;mq;mq;100;8;2250;mq;mq;mq;97770;mq;mq;370;mq;mq;mq;mq;283.650000;mq;mq;6.400000;7.700000;-10;2;0.000000;mq;mq;0.200000;3.000000;4.200000;5.400000;6.400000;mq;mq;mq;mq;8;mq;mq;mq;mq;mq;mq;mq;mq;mq;mq;mq;
07627;20180512210000;102300;270;3;280;2.800000;278.150000;276.650000;90;10360;63;mq;mq;100;8;800;mq;mq;mq;97260;mq;mq;470;mq;mq;mq;mq;283.150000;mq;mq;5.500000;11.500000;-10;mq;0.000000;mq;mq;2.100000;9.700000;18.000000;18.200000;18.200000;mq;mq;mq;mq;6;mq;mq;8;mq;mq;mq;mq;mq;mq;mq;mq;
07630;20180512210000;102060;190;1;260;6.100000;281.950000;279.950000;87;8400;63;mq;mq;100;8;1250;mq;mq;mq;100230;mq;mq;440;mq;mq;mq;mq;284.150000;mq;mq;9.700000;9.700000;-10;2;0.000000;mq;mq;3.100000;6.100000;6.100000;7.500000;7.500000;mq;mq;mq;mq;8;mq;mq;mq;9;mq;mq;mq;mq;mq;mq;mq;
07643;20180512210000;101330;30;3;300;4.900000;286.050000;283.750000;86;60000;0;mq;mq;100;8;800;mq;mq;mq;101230;mq;mq;-410;mq;mq;mq;mq;287.050000;mq;mq;7.600000;9.100000;-10;mq;mq;mq;mq;0.800000;7.900000;7.900000;7.900000;7.900000;mq;mq;mq;mq;mq;9;mq;mq;mq;mq;mq;mq;mq;mq;mq;mq;
07650;20180512210000;101410;10;3;140;4.500000;290.550000;283.650000;64;58790;0;mq;mq;100;6;450;mq;mq;mq;101030;mq;mq;-360;mq;mq;mq;mq;290.850000;mq;mq;6.800000;8.200000;-10;0;0.000000;mq;mq;0.000000;0.000000;-0.100000;-0.100000;-0.100000;mq;mq;mq;mq;5;mq;mq;6;mq;mq;mq;mq;mq;mq;mq;mq;
07661;20180512210000;101450;0;5;0;0.000000;289.050000;286.850000;87;mq;mq;mq;mq;mq;mq;mq;mq;mq;mq;100000;mq;mq;-310;mq;mq;mq;mq;mq;mq;mq;0.700000;1.000000;-10;mq;mq;mq;mq;0.000000;0.000000;0.000000;0.000000;0.000000;mq;mq;mq;mq;mq;mq;mq;mq;mq;mq;mq;mq;mq;mq;mq;mq;
07690;20180512210000;101430;20;1;30;1.700000;290.650000;286.550000;77;35000;1;1;1;40;3;800;38;20;10;101120;mq;mq;-330;mq;mq;mq;mq;290.550000;mq;mq;2.100000;2.100000;-10;0;0.000000;mq;mq;0.000000;0.000000;0.000000;0.000000;0.000000;mq;mq;mq;mq;3;6;mq;mq;mq;mq;mq;mq;mq;mq;mq;mq;
07747;20180512210000;101700;270;3;310;6.500000;282.550000;279.850000;83;19790;61;mq;mq;100;1;1250;mq;mq;mq;101160;mq;mq;-20;mq;mq;mq;mq;281.150000;mq;mq;12.300000;14.500000;-10;2;0.000000;mq;mq;1.400000;5.800000;17.700000;17.700000;17.700000;mq;mq;mq;mq;8;mq;mq;mq;9;mq;mq;mq;mq;mq;mq;mq;
07761;20180512210000;101510;50;1;50;2.000000;288.750000;284.950000;78;24050;0;mq;mq;mq;0;mq;mq;mq;mq;101400;mq;mq;-420;mq;mq;mq;mq;288.550000;mq;mq;3.100000;3.100000;-10;mq;0.000000;mq;mq;0.000000;0.000000;0.000000;0.000000;0.000000;mq;mq;mq;mq;mq;mq;mq;mq;mq;mq;mq;mq;mq;mq;mq;mq;
07790;20180512210000;101520;20;2;170;1.000000;289.050000;287.450000;90;7990;0;mq;mq;mq;0;mq;mq;mq;mq;101380;mq;mq;-240;mq;mq;mq;mq;290.750000;mq;mq;1.300000;1.700000;-10;mq;0.000000;mq;mq;0.000000;0.000000;0.000000;0.000000;0.000000;mq;mq;mq;mq;mq;mq;mq;mq;mq;mq;mq;mq;mq;mq;mq;mq;
61968;20180512210000;101220;mq;8;110;3.600000;300.650000;296.850000;80;mq;mq;mq;mq;mq;mq;mq;mq;mq;mq;101170;mq;mq;-120;mq;299.750000;mq;305.550000;mq;mq;mq;mq;mq;mq;mq;mq;mq;mq;0.000000;0.000000;0.400000;0.400000;0.400000;mq;mq;mq;mq;mq;mq;mq;mq;mq;mq;mq;mq;mq;mq;mq;mq;
61972;20180512210000;101370;mq;5;150;2.400000;296.750000;290.950000;70;mq;mq;mq;mq;mq;mq;mq;mq;mq;mq;101300;mq;mq;-310;mq;295.750000;mq;302.650000;mq;mq;mq;mq;mq;mq;mq;mq;mq;mq;0.000000;0.000000;0.000000;0.000000;0.000000;mq;mq;mq;mq;mq;mq;mq;mq;mq;mq;mq;mq;mq;mq;mq;mq;
61976;20180512210000;101390;mq;7;130;5.900000;299.650000;296.350000;82;mq;mq;mq;mq;mq;mq;mq;mq;mq;mq;101300;mq;mq;-110;mq;298.650000;mq;302.650000;mq;mq;mq;mq;mq;mq;mq;mq;mq;mq;0.000000;0.000000;0.000000;0.000000;0.000000;mq;mq;mq;mq;mq;mq;mq;mq;mq;mq;mq;mq;mq;mq;mq;mq;
61980;20180512210000;101590;mq;mq;160;2.600000;294.450000;291.650000;84;35000;0;mq;mq;90;mq;1250;mq;mq;mq;mq;mq;mq;mq;mq;mq;mq;mq;mq;mq;mq;mq;3.600000;-10;mq;mq;mq;mq;0.000000;0.000000;mq;mq;mq;mq;mq;mq;mq;mq;mq;mq;mq;mq;mq;mq;mq;mq;mq;mq;mq;
71805;20180512210000;101910;-10;5;250;6.200000;277.050000;272.850000;74;19000;0;mq;mq;mq;mq;mq;mq;mq;mq;101820;mq;mq;mq;mq;mq;mq;mq;mq;mq;mq;mq;11.300000;-10;mq;mq;mq;mq;0.000000;0.000000;mq;mq;mq;mq;mq;mq;mq;mq;mq;mq;mq;mq;mq;mq;mq;mq;mq;mq;mq;
78897;20180512210000;101590;-50;5;120;6.700000;301.150000;293.950000;65;45000;0;mq;mq;mq;mq;1250;mq;mq;mq;mq;mq;mq;mq;mq;mq;mq;mq;mq;mq;mq;mq;mq;mq;mq;mq;mq;mq;mq;mq;mq;mq;mq;mq;mq;mq;mq;mq;mq;mq;mq;mq;mq;mq;mq;mq;mq;mq;mq;
78925;20180512210000;101500;-80;6;100;7.200000;301.050000;294.150000;66;29000;0;mq;mq;mq;mq;800;mq;mq;mq;mq;mq;mq;mq;mq;mq;mq;mq;mq;mq;mq;mq;mq;mq;mq;mq;mq;mq;mq;mq;mq;mq;mq;mq;mq;mq;mq;mq;mq;mq;mq;mq;mq;mq;mq;mq;mq;mq;mq;
81405;20180512210000;101220;mq;mq;60;2.600000;298.850000;297.050000;90;60000;0;mq;mq;100;mq;450;mq;mq;mq;101130;mq;mq;mq;mq;mq;mq;mq;mq;mq;mq;mq;mq;mq;mq;mq;mq;mq;mq;0.000000;mq;mq;mq;mq;mq;mq;mq;mq;mq;mq;mq;mq;mq;mq;mq;mq;mq;mq;mq;
