07005;20180513180000;101650;-10;5;300;5.100000;285.150000;278.350000;63;20000;0;mq;mq;mq;mq;mq;mq;mq;mq;100780;mq;mq;470;282.650000;mq;287.350000;mq;284.850000;mq;mq;7.000000;8.700000;-10;0;mq;mq;mq;0.000000;0.000000;0.000000;0.000000;2.200000;mq;mq;mq;mq;mq;mq;mq;mq;mq;mq;mq;mq;mq;mq;mq;mq;
07015;20180513180000;101510;-40;6;320;5.800000;286.450000;278.850000;60;32220;0;mq;mq;mq;5;1750;mq;mq;mq;100950;mq;mq;640;282.950000;mq;287.050000;mq;286.150000;mq;mq;8.700000;9.900000;-10;0;0.000000;mq;mq;0.000000;0.000000;0.000000;0.600000;3.400000;mq;mq;mq;mq;5;mq;mq;mq;mq;mq;mq;mq;mq;mq;mq;mq;
07020;20180513180000;101840;30;1;mq;mq;285.250000;281.950000;80;14000;1;0;mq;40;2;1250;32;20;15;101740;mq;mq;530;282.650000;mq;286.650000;mq;mq;mq;mq;mq;5.900000;-10;mq;mq;mq;mq;mq;mq;mq;mq;0.000000;mq;mq;mq;mq;2;0;mq;mq;mq;mq;mq;mq;mq;mq;mq;mq;
07027;20180513180000;101770;40;2;330;4.400000;285.150000;281.450000;78;43820;0;mq;mq;mq;1;450;mq;mq;mq;100960;mq;mq;440;280.450000;mq;287.750000;mq;284.750000;mq;mq;6.600000;7.000000;-10;0;0.000000;mq;mq;0.000000;0.000000;0.000000;0.000000;0.000000;mq;mq;mq;mq;mq;mq;mq;mq;mq;mq;mq;mq;mq;mq;mq;mq;
07037;20180513180000;101650;0;5;350;4.500000;285.350000;279.150000;66;55590;0;mq;mq;90;7;1250;mq;mq;mq;99830;mq;mq;410;281.450000;mq;287.450000;mq;284.950000;mq;mq;7.700000;7.700000;-10;mq;0.000000;mq;mq;0.000000;0.000000;0.000000;-0.100000;-0.100000;mq;mq;mq;mq;7;mq;mq;mq;mq;mq;mq;mq;mq;mq;mq;mq;
07072;20180513180000;101380;-80;6;310;4.000000;284.050000;282.150000;88;17610;60;mq;mq;100;8;800;mq;mq;mq;100240;mq;mq;410;282.750000;mq;285.350000;mq;284.650000;mq;mq;6.000000;7.000000;-10;2;0.000000;mq;mq;0.400000;1.200000;1.600000;1.600000;9.300000;mq;mq;mq;mq;mq;8;mq;mq;mq;mq;mq;mq;mq;mq;mq;mq;
07110;20180513180000;101990;70;1;330;4.200000;283.850000;278.350000;69;35670;0;mq;mq;mq;1;1250;mq;mq;mq;100800;mq;mq;660;280.850000;mq;287.250000;mq;280.250000;mq;mq;7.100000;8.100000;-10;0;0.000000;mq;mq;0.000000;0.000000;0.000000;0.600000;2.800000;mq;mq;mq;mq;mq;mq;mq;mq;mq;mq;mq;mq;mq;mq;mq;mq;
07117;20180513180000;101940;70;1;300;3.500000;285.950000;280.350000;69;25000;2;0;mq;40;2;450;31;20;11;101240;mq;mq;640;280.550000;mq;287.850000;mq;mq;mq;mq;6.200000;7.500000;-10;0;mq;mq;mq;0.000000;0.000000;0.000000;0.000000;3.000000;mq;mq;mq;mq;1;0;mq;mq;mq;mq;mq;mq;mq;mq;mq;mq;
07130;20180513180000;101780;60;3;340;4.900000;286.850000;277.950000;55;22780;0;mq;mq;mq;0;mq;mq;mq;mq;101330;mq;mq;400;278.350000;mq;288.650000;mq;280.950000;mq;mq;7.500000;8.800000;-10;0;0.000000;mq;mq;0.000000;0.000000;0.000000;0.000000;0.000000;mq;mq;mq;mq;mq;mq;mq;mq;mq;mq;mq;mq;mq;mq;mq;mq;
07139;20180513180000;101660;50;3;350;4.200000;286.950000;279.350000;60;20000;0;mq;mq;mq;1;1750;mq;mq;mq;99930;mq;mq;240;279.750000;mq;288.850000;mq;285.750000;mq;mq;5.700000;6.400000;-10;0;0.000000;mq;mq;0.000000;0.000000;0.000000;0.000000;0.000000;mq;mq;mq;mq;mq;mq;mq;mq;mq;mq;mq;mq;mq;mq;mq;mq;
07149;20180513180000;101560;20;3;20;4.800000;284.950000;280.250000;73;37930;80;8;6;90;7;1250;38;mq;mq;100480;mq;mq;320;282.250000;mq;288.050000;mq;mq;mq;mq;8.600000;11.500000;-10;0;0.000000;0.000000;-60;-0.100000;-0.100000;-0.100000;0.200000;1.200000;mq;mq;mq;mq;7;6;mq;mq;mq;mq;mq;mq;mq;mq;mq;mq;
07168;20180513180000;101440;-70;6;310;4.400000;283.550000;282.450000;93;7860;63;mq;mq;75;6;1250;mq;mq;mq;100020;mq;mq;420;282.250000;mq;284.350000;mq;283.950000;mq;mq;6.300000;7.100000;-10;2;0.000000;mq;mq;1.300000;4.700000;6.700000;10.500000;16.800000;mq;mq;mq;mq;6;mq;mq;mq;8;mq;mq;mq;mq;mq;mq;mq;
07181;20180513180000;101200;-90;6;300;3.300000;282.050000;281.950000;99;3430;51;mq;mq;100;8;80;mq;mq;mq;97120;mq;mq;130;281.350000;mq;282.350000;mq;282.750000;mq;mq;5.800000;6.600000;-10;mq;mq;mq;mq;0.200000;2.300000;6.500000;12.600000;15.400000;mq;mq;mq;mq;mq;mq;mq;mq;mq;mq;mq;mq;mq;mq;mq;mq;
07190;20180513180000;101040;-40;6;300;2.700000;285.450000;282.850000;84;46440;0;mq;mq;100;8;450;mq;mq;mq;99240;mq;mq;90;285.450000;mq;288.550000;mq;286.850000;mq;mq;4.800000;5.700000;-10;0;0.000000;mq;mq;0.000000;0.000000;0.000000;0.000000;1.000000;mq;mq;mq;mq;mq;mq;mq;mq;mq;mq;mq;mq;mq;mq;mq;mq;
07207;20180513180000;101950;110;1;20;2.700000;283.550000;280.950000;84;mq;mq;mq;mq;mq;mq;mq;mq;mq;mq;101430;mq;mq;500;282.850000;mq;287.550000;mq;mq;mq;mq;7.500000;8.900000;-10;mq;mq;mq;mq;0.800000;0.800000;0.800000;1.000000;4.600000;mq;mq;mq;mq;mq;mq;mq;mq;mq;mq;mq;mq;mq;mq;mq;mq;
07222;20180513180000;101750;90;1;300;4.400000;285.150000;281.050000;76;9140;0;mq;mq;100;1;1250;mq;mq;mq;101440;mq;mq;260;281.250000;mq;289.250000;mq;284.150000;mq;mq;7.100000;8.400000;-10;1;0.000000;mq;mq;-0.100000;-0.100000;-0.100000;0.800000;3.000000;mq;mq;mq;mq;4;mq;mq;5;mq;mq;mq;9;mq;mq;mq;mq;
07240;20180513180000;101630;10;3;280;2.300000;285.150000;280.250000;72;60000;0;mq;mq;90;7;1750;mq;mq;mq;100280;mq;mq;120;280.950000;mq;288.150000;mq;284.950000;mq;mq;3.800000;4.900000;-10;0;0.000000;mq;mq;0.000000;0.000000;0.000000;0.000000;0.000000;mq;mq;mq;mq;7;mq;mq;mq;8;mq;mq;mq;mq;mq;mq;mq;
07255;20180513180000;101550;10;3;260;3.000000;285.650000;278.350000;61;20000;0;mq;mq;mq;mq;mq;mq;mq;mq;99570;mq;mq;50;281.450000;mq;288.150000;mq;283.950000;mq;mq;5.600000;5.600000;-10;mq;0.000000;mq;mq;-0.100000;-0.100000;-0.100000;-0.100000;2.400000;mq;mq;mq;mq;mq;mq;mq;mq;mq;mq;mq;mq;mq;mq;mq;mq;
07280;20180513180000;101370;-20;5;330;2.200000;282.150000;280.250000;88;16300;51;mq;mq;mq;mq;mq;mq;mq;mq;98640;mq;mq;340;281.550000;mq;283.950000;mq;284.550000;mq;mq;3.800000;6.900000;-10;2;0.000000;mq;mq;0.400000;0.400000;0.600000;0.800000;1.200000;mq;mq;mq;mq;mq;mq;mq;mq;mq;mq;mq;mq;mq;mq;mq;mq;
07299;20180513180000;101080;-20;6;280;2.300000;283.150000;282.350000;95;3000;58;6;6;100;7;150;35;mq;mq;97830;mq;mq;90;282.750000;mq;284.050000;mq;285.150000;mq;mq;4.000000;5.400000;-10;2;0.000000;0.000000;-60;0.400000;1.200000;1.200000;1.200000;6.400000;mq;mq;mq;mq;8;6;mq;mq;mq;mq;mq;mq;mq;mq;mq;mq;
07314;20180513180000;101840;-10;7;300;8.900000;285.950000;280.350000;69;14000;1;0;mq;40;3;800;31;20;10;101560;mq;mq;150;283.750000;mq;286.750000;mq;mq;mq;mq;12.100000;12.900000;-10;0;mq;mq;mq;0.000000;0.000000;0.000000;1.200000;1.800000;mq;mq;mq;mq;mq;mq;mq;mq;mq;mq;mq;mq;mq;mq;mq;mq;
07335;20180513180000;101680;20;3;260;2.900000;286.050000;279.350000;64;58900;0;mq;mq;mq;3;1750;mq;mq;mq;100240;mq;mq;80;279.350000;mq;288.250000;mq;283.850000;mq;mq;4.400000;8.700000;-10;0;0.000000;mq;mq;0.000000;0.000000;0.200000;0.200000;0.200000;mq;mq;mq;mq;mq;9;mq;mq;mq;mq;mq;mq;mq;mq;mq;mq;
07434;20180513180000;101680;50;1;280;3.800000;283.050000;276.950000;66;37660;0;mq;mq;mq;1;800;mq;mq;mq;96890;mq;mq;-10;278.150000;mq;285.450000;mq;277.850000;mq;mq;6.400000;10.100000;-10;mq;0.000000;mq;mq;0.000000;0.000000;3.000000;3.600000;3.800000;mq;mq;mq;mq;mq;mq;mq;mq;mq;mq;mq;mq;mq;mq;mq;mq;
07460;20180513180000;101630;90;0;310;1.100000;281.450000;278.350000;81;60000;0;mq;mq;100;3;1250;mq;mq;mq;97720;mq;mq;220;279.150000;mq;284.250000;mq;282.350000;mq;mq;2.100000;4.800000;-10;2;0.000000;mq;mq;-0.100000;2.600000;3.000000;3.400000;23.000000;mq;mq;mq;mq;3;mq;mq;8;mq;mq;mq;mq;mq;mq;mq;mq;
07471;20180513180000;mq;-20;5;310;2.800000;276.850000;275.350000;90;20000;61;mq;mq;100;8;450;mq;mq;mq;91850;mq;776;160;273.550000;mq;277.250000;mq;277.050000;mq;mq;4.300000;6.500000;-10;2;0.000000;mq;mq;-0.100000;0.200000;2.800000;10.800000;41.700000;mq;mq;mq;mq;mq;mq;mq;mq;mq;mq;mq;mq;mq;mq;mq;mq;
07481;20180513180000;101550;40;3;310;4.100000;280.350000;278.650000;89;13230;61;6;6;100;8;450;35;mq;mq;98640;mq;mq;350;280.250000;mq;281.950000;mq;mq;mq;mq;6.100000;9.500000;-10;2;0.000000;0.000000;-60;3.100000;8.700000;13.100000;16.300000;20.300000;mq;mq;mq;mq;2;6;mq;7;6;mq;mq;mq;mq;mq;mq;mq;
07510;20180513180000;101940;70;3;310;4.600000;285.750000;279.150000;64;38050;0;mq;mq;75;1;1250;mq;mq;mq;101360;mq;mq;150;280.350000;mq;288.550000;mq;283.950000;mq;mq;8.000000;11.300000;-10;0;0.000000;mq;mq;0.000000;0.000000;2.800000;2.800000;2.800000;mq;mq;mq;mq;6;mq;mq;mq;mq;mq;mq;mq;mq;mq;mq;mq;
07535;20180513180000;101760;30;2;280;2.000000;284.150000;279.850000;75;20000;0;mq;mq;mq;5;2250;mq;mq;mq;98640;mq;mq;-10;279.750000;mq;285.950000;mq;284.450000;mq;mq;4.600000;4.900000;-10;mq;0.000000;mq;mq;-0.100000;0.200000;3.200000;3.200000;5.000000;mq;mq;mq;mq;5;mq;mq;mq;mq;mq;mq;mq;mq;mq;mq;mq;
07558;20180513180000;101650;0;0;320;10.200000;276.950000;275.450000;90;15490;61;mq;mq;mq;mq;mq;mq;mq;mq;93190;mq;mq;20;276.550000;mq;279.850000;mq;279.150000;mq;mq;15.300000;15.300000;-10;mq;0.000000;mq;mq;1.600000;1.800000;3.600000;4.800000;24.200000;mq;mq;mq;mq;mq;mq;mq;mq;mq;mq;mq;mq;mq;mq;mq;mq;
07577;20180513180000;101400;0;5;30;6.400000;281.150000;279.250000;88;20000;51;mq;mq;mq;mq;mq;mq;mq;mq;100500;mq;mq;100;280.250000;mq;281.950000;mq;282.650000;mq;mq;10.900000;11.300000;-10;1;0.000000;mq;mq;-0.100000;0.800000;8.300000;18.300000;34.200000;mq;mq;mq;mq;mq;mq;mq;mq;mq;mq;mq;mq;mq;mq;mq;mq;
07591;20180513180000;mq;-90;6;0;0.000000;281.950000;278.650000;80;20000;0;mq;mq;mq;mq;mq;mq;mq;mq;90770;mq;717;-610;281.950000;mq;289.150000;mq;281.650000;mq;mq;1.400000;1.900000;-10;mq;mq;mq;mq;0.000000;-0.100000;1.200000;1.200000;2.000000;mq;mq;mq;mq;mq;mq;mq;mq;mq;mq;mq;mq;mq;mq;mq;mq;
07607;20180513180000;101980;30;1;280;5.600000;285.150000;280.250000;72;60000;0;mq;mq;mq;1;1250;mq;mq;mq;101270;mq;mq;40;280.450000;mq;287.950000;mq;284.050000;mq;mq;8.000000;11.200000;-10;mq;0.000000;mq;mq;0.000000;0.200000;1.000000;3.200000;3.200000;mq;mq;mq;mq;mq;mq;mq;mq;mq;mq;mq;mq;mq;mq;mq;mq;
07621;20180513180000;102140;20;1;230;4.700000;280.750000;279.250000;90;16380;0;mq;mq;100;8;800;mq;mq;mq;97750;mq;mq;70;279.950000;mq;285.350000;mq;283.450000;mq;mq;7.600000;11.600000;-10;2;0.000000;mq;mq;1.800000;3.000000;4.000000;5.200000;8.200000;mq;mq;mq;mq;6;mq;mq;7;mq;mq;mq;8;mq;mq;mq;mq;
07627;20180513180000;102010;80;1;280;6.400000;282.050000;276.050000;66;20000;0;mq;mq;75;4;1250;mq;mq;mq;97050;mq;mq;60;278.350000;mq;286.050000;mq;283.150000;mq;mq;12.400000;13.700000;-10;0;0.000000;mq;mq;0.000000;0.000000;3.200000;5.600000;18.300000;mq;mq;mq;mq;5;mq;mq;5;mq;mq;mq;mq;mq;mq;mq;mq;
07630;20180513180000;101890;10;1;270;6.000000;282.850000;280.450000;85;14090;62;mq;mq;90;5;800;mq;mq;mq;100070;mq;mq;30;280.550000;mq;288.050000;mq;283.450000;mq;mq;7.700000;11.900000;-10;2;0.000000;mq;mq;1.800000;2.400000;5.600000;5.600000;14.100000;mq;mq;mq;mq;5;mq;mq;7;mq;mq;mq;8;mq;mq;mq;mq;
07643;20180513180000;101440;-40;8;290;5.400000;284.550000;278.150000;65;60000;0;mq;mq;100;8;1750;mq;mq;mq;101340;mq;mq;140;281.450000;mq;284.550000;mq;282.650000;mq;mq;9.700000;9.700000;-10;mq;mq;mq;mq;-0.100000;0.200000;2.200000;12.500000;29.300000;mq;mq;mq;mq;6;mq;mq;8;mq;mq;mq;mq;mq;mq;mq;mq;
07650;20180513180000;101160;-110;7;280;14.600000;282.550000;279.450000;81;44310;0;mq;mq;100;8;450;mq;mq;mq;100770;mq;mq;-250;281.850000;mq;285.750000;mq;282.650000;mq;mq;21.500000;22.600000;-10;mq;0.000000;mq;mq;-0.100000;-0.100000;-0.100000;22.600000;22.600000;mq;mq;mq;mq;mq;mq;mq;mq;mq;mq;mq;mq;mq;mq;mq;mq;
07661;20180513180000;100930;-140;6;290;11.500000;281.850000;279.250000;84;mq;mq;2;mq;mq;mq;mq;mq;mq;mq;99440;mq;mq;-560;281.650000;mq;287.650000;mq;mq;mq;mq;17.300000;21.500000;-10;mq;mq;mq;mq;0.000000;0.000000;0.000000;18.500000;18.500000;mq;mq;mq;mq;mq;mq;mq;mq;mq;mq;mq;mq;mq;mq;mq;mq;
07690;20180513180000;100800;-100;8;130;2.700000;287.150000;282.350000;73;40000;2;2;2;90;7;450;38;mq;mq;100490;mq;mq;-610;286.850000;mq;292.150000;mq;288.450000;mq;mq;5.000000;9.200000;-10;1;0.000000;mq;mq;0.000000;0.800000;8.800000;10.200000;10.200000;mq;mq;mq;mq;6;6;mq;mq;mq;mq;mq;mq;mq;mq;mq;mq;
07747;20180513180000;101750;70;3;310;9.000000;283.450000;279.550000;77;22760;60;mq;mq;90;7;800;mq;mq;mq;101210;mq;mq;320;282.250000;mq;288.850000;mq;281.650000;mq;mq;14.600000;16.700000;-10;2;0.000000;mq;mq;0.800000;1.000000;1.600000;1.600000;22.000000;mq;mq;mq;mq;4;mq;mq;5;mq;mq;mq;mq;mq;mq;mq;mq;
07761;20180513180000;101390;200;1;270;5.700000;287.550000;281.950000;69;46980;0;mq;mq;100;7;800;mq;mq;mq;101280;mq;mq;-70;287.450000;mq;295.350000;mq;287.950000;mq;mq;8.600000;8.600000;-10;mq;0.000000;mq;mq;0.000000;0.200000;7.700000;7.700000;7.700000;mq;mq;mq;mq;3;mq;mq;7;mq;mq;mq;mq;mq;mq;mq;mq;
07790;20180513180000;100960;-20;5;340;3.800000;288.150000;286.050000;87;60000;0;mq;mq;100;8;1250;mq;mq;mq;100820;mq;mq;-540;288.150000;mq;294.750000;mq;291.050000;mq;mq;6.300000;7.900000;-10;mq;0.000000;mq;mq;0.000000;8.000000;8.400000;8.400000;10.200000;mq;mq;mq;mq;8;mq;mq;mq;8;mq;mq;mq;mq;mq;mq;mq;
61968;20180513180000;101310;mq;3;100;4.500000;300.850000;296.450000;77;mq;mq;mq;mq;mq;mq;mq;mq;mq;mq;101260;mq;mq;0;mq;298.750000;mq;305.250000;mq;mq;mq;mq;mq;mq;mq;mq;mq;mq;0.000000;0.000000;0.000000;0.000000;0.400000;mq;mq;mq;mq;mq;mq;mq;mq;mq;mq;mq;mq;mq;mq;mq;mq;
61972;20180513180000;101460;mq;3;200;1.500000;296.350000;291.050000;72;mq;mq;mq;mq;mq;mq;mq;mq;mq;mq;101390;mq;mq;30;mq;295.450000;mq;302.350000;mq;mq;mq;mq;mq;mq;mq;mq;mq;mq;0.000000;0.000000;0.000000;0.000000;0.000000;mq;mq;mq;mq;mq;mq;mq;mq;mq;mq;mq;mq;mq;mq;mq;mq;
61976;20180513180000;101520;mq;1;110;7.500000;300.150000;296.150000;79;mq;mq;mq;mq;mq;mq;mq;mq;mq;mq;101430;mq;mq;30;mq;299.350000;mq;302.950000;mq;mq;mq;mq;mq;mq;mq;mq;mq;mq;0.000000;0.000000;0.200000;0.200000;0.200000;mq;mq;mq;mq;mq;mq;mq;mq;mq;mq;mq;mq;mq;mq;mq;mq;
71805;20180513180000;101880;10;0;250;7.700000;281.250000;275.250000;66;18000;0;mq;mq;mq;mq;mq;mq;mq;mq;101790;mq;mq;mq;mq;272.750000;281.950000;mq;mq;mq;mq;mq;12.300000;-10;mq;mq;mq;mq;mq;0.000000;mq;0.000000;mq;mq;mq;mq;mq;mq;mq;mq;mq;mq;mq;mq;mq;mq;mq;mq;mq;
78897;20180513180000;101610;-160;7;120;8.200000;301.550000;295.550000;70;40000;0;mq;mq;90;mq;1250;mq;mq;mq;mq;mq;mq;mq;mq;297.050000;303.250000;mq;mq;mq;mq;mq;mq;mq;mq;mq;mq;mq;mq;mq;0.000000;mq;0.400000;mq;mq;mq;mq;mq;mq;mq;mq;mq;mq;mq;mq;mq;mq;mq;mq;
78925;20180513180000;101530;-150;8;110;8.700000;303.050000;296.550000;68;28000;0;mq;mq;mq;mq;800;mq;mq;mq;mq;mq;mq;mq;mq;298.350000;303.150000;mq;mq;mq;mq;mq;mq;mq;mq;mq;mq;mq;mq;mq;0.000000;mq;mq;mq;mq;mq;mq;mq;mq;mq;mq;mq;mq;mq;mq;mq;mq;mq;mq;
81405;20180513180000;101100;mq;mq;80;4.600000;300.250000;297.850000;87;24000;0;mq;mq;100;mq;450;mq;mq;mq;101010;mq;mq;mq;mq;mq;mq;mq;mq;mq;mq;mq;mq;mq;mq;mq;mq;mq;mq;1.000000;2.000000;mq;mq;mq;mq;mq;mq;mq;mq;mq;mq;mq;mq;mq;mq;mq;mq;mq;mq;
